<?xml version="1.0" encoding="UTF-8"?>
<svg width="11px" height="8px" viewBox="0 0 11 8" version="1.1" xmlns="http://www.w3.org/2000/svg" xmlns:xlink="http://www.w3.org/1999/xlink">
    <!-- Generator: sketchtool 46.2 (44496) - http://www.bohemiancoding.com/sketch -->
    <title>D8A00AEF-261C-4688-8FA5-3F7C4ED0DBD2</title>
    <desc>Created with sketchtool.</desc>
    <defs></defs>
    <g id="02.-Email-Templates" stroke="none" stroke-width="1" fill="none" fill-rule="evenodd" stroke-linecap="round">
        <g id="Email-Templates-(Edit)" transform="translate(-537.000000, -941.000000)" stroke-width="2" stroke="#46C4FD">
            <g id="Template" transform="translate(406.000000, 231.000000)">
                <g id="Checkboxes" transform="translate(125.000000, 670.000000)">
                    <g id="2" transform="translate(0.000000, 32.000000)">
                        <g id="Checkbox">
                            <polyline id="Ic_check" points="7 11.3751482 9.99553135 14.3706796 15.3662109 9"></polyline>
                        </g>
                    </g>
                </g>
            </g>
        </g>
    </g>
</svg>