<?xml version="1.0" encoding="UTF-8"?>
<svg width="36px" height="36px" viewBox="0 0 36 36" version="1.1" xmlns="http://www.w3.org/2000/svg" xmlns:xlink="http://www.w3.org/1999/xlink">
    <!-- Generator: sketchtool 46.2 (44496) - http://www.bohemiancoding.com/sketch -->
    <title>D6E133CC-ABF3-4FB2-814C-73A0116A3248</title>
    <desc>Created with sketchtool.</desc>
    <defs>
        <linearGradient x1="1.11022302e-14%" y1="100%" x2="99.2087851%" y2="0.791214923%" id="linearGradient-1">
            <stop stop-color="#FF3D3B" offset="0%"></stop>
            <stop stop-color="#EBECD3" offset="100%"></stop>
        </linearGradient>
        <linearGradient x1="100%" y1="0%" x2="0%" y2="100%" id="linearGradient-2">
            <stop stop-color="#46C4FD" offset="0%"></stop>
            <stop stop-color="#825FC2" offset="100%"></stop>
        </linearGradient>
        <path d="M97,62 C87.0588745,62 79,53.9411255 79,44 C79,34.0588745 87.0588745,26 97,26 C106.941125,26 115,34.0588745 115,44 C115,53.9411255 106.941125,62 97,62 Z M101.054952,49.9610267 L100.651578,49.3140935 C98.634708,46.4028945 98.634708,41.643315 100.651578,38.732116 L101.099771,38.0389733 C101.81688,36.9761546 101.547964,36.6988976 100.4723,37.3458307 L90.9706029,43.3068574 C90.3431324,43.6765334 90.3431324,44.3234666 90.9706029,44.7393521 L100.427481,50.6541693 C101.503145,51.3011024 101.772061,51.0238454 101.054952,49.9610267 Z" id="path-3"></path>
    </defs>
    <g id="02.-Email-Templates" stroke="none" stroke-width="1" fill="none" fill-rule="evenodd">
        <g id="Email-Templates-(Edit)" transform="translate(-79.000000, -26.000000)">
            <g id="Header">
                <g id="Logo">
                    <use fill="url(#linearGradient-1)" xlink:href="#path-3"></use>
                    <use fill="url(#linearGradient-2)" xlink:href="#path-3"></use>
                </g>
            </g>
        </g>
    </g>
</svg>